…
``` r
setdiff(state.abb, datasets::state.abb)
#> character(0)
```

### States

The `usa::states` tibble contains all the identifying information on the
52 “states.”

``` r
show(usa::states)
#> # A tibble: 52 x 8
#>    name                 abb   fips  region    division               area   lat   long
#>    <chr>                <chr> <chr> <fct>     <fct>                 <dbl> <dbl>  <dbl>
#>  1 Alabama              AL    01    South     East South Central  50647.   32.7  -86.8
#>  2 Alaska               AK    02    West      Pacific            571017.   63.4 -153. 
#>  3 Arizona              AZ    04    West      Mountain           113653.   34.3 -112. 
#>  4 Arkansas             AR    05    South     West South Central  52038.   34.9  -92.4
#>  5 California           CA    06    West      Pacific            155854.   37.2 -120. 
#>  6 Colorado             CO    08    West      Mountain           103638.   39.0 -106. 
#>  7 Connecticut          CT    09    Northeast New England          4843.   41.6  -72.7
#>  8 Delaware             DE    10    South     South Atlantic       1949.   39.0  -75.5
#>  9 District of Columbia DC    11    South     South Atlantic         61.1  38.9  -77.0
#> 10 Florida              FL    12    South     South Atlantic      53648.   28.5  -82.4
#> # … with 42 more rows
```
…
1.  Full state name.
2.  Population estimate as of September 26, 2019.
3.  Date admitted to the union.
4.  Per capita income (2018).
5.  Life expectancy in years (2017-18).
6.  Murder rate per 100,000 population (2018).
7.  Percent high-school graduates (2019).
8.  Percent bachelor’s degree holders (2019).
9.  Mean number of days requiring heating per year (1981-2010).

<!-- end list -->

``` r
show(usa::facts)
#> # A tibble: 52 x 9
#>    name                 population admission  income life_exp murder  high  bach   heat
#>    <chr>                     <dbl> <date>      <dbl>    <dbl>  <dbl> <dbl> <dbl>  <dbl>
#>  1 Alabama                 4887871 1819-12-14  49861     75.3    7.8 0.866 0.234  65.9 
#>  2 Alaska                   737438 1959-01-03  74346     78.3    6.4 0.927 0.271 -26.6 
#>  3 Arizona                 7171646 1912-02-14  59246     79.7    5.1 0.871 0.271  73.6 
#>  4 Arkansas                3013825 1836-06-15  47062     75.9    7.2 0.873 0.214  62.4 
#>  5 California             39557045 1850-09-09  75277     81.5    4.4 0.845 0.314  38.1 
#>  6 Colorado                5695564 1876-08-01  71953     80.3    3.7 0.913 0.384   6.24
#>  7 Connecticut             3572665 1788-01-09  76348     81      2.3 0.908 0.368  20.4 
#>  8 Delaware                 967171 1787-12-07  64805     78.6    5   0.895 0.288  40.5 
#>  9 District of Columbia     702455 1790-07-16  85203     78.5   22.8 0.920 0.557  50.7 
#> 10 Florida                21299325 1845-03-03  55462     80      5.2 0.881 0.282 115.  
#> # … with 42 more rows
```

By releasing this data as a third party package, these figures can be
periodically updated (i.e., following a new census). For permanent
examples of data, the old `state.x77` matrix or new `usa::state.x19`
matrices should be used.

### ZIP Codes

The ‘usa’ package also contains the `usa::zipcodes` tibble, which
contains the data from the recently archived
[‘zipcode’](https://cran.r-project.org/package=zipcode) package.

``` r
show(usa::zipcodes)
#> # A tibble: 44,336 x 5
#>    zip   city       state   lat  long
#>    <chr> <chr>      <chr> <dbl> <dbl>
#>  1 00210 Portsmouth NH     43.0 -71.0
#>  2 00211 Portsmouth NH     43.0 -71.0
#>  3 00212 Portsmouth NH     43.0 -71.0
#>  4 00213 Portsmouth NH     43.0 -71.0
#>  5 00214 Portsmouth NH     43.0 -71.0
#>  6 00215 Portsmouth NH     43.0 -71.0
#>  7 00501 Holtsville NY     40.9 -72.6
#>  8 00544 Holtsville NY     40.9 -72.6
#>  9 00601 Adjuntas   PR     18.2 -66.7
#> 10 00602 Aguada     PR     18.4 -67.2
#> # … with 44,326 more rows
```
…
``` r
sample(usa::zip.code, 6)
#> [1] "40863" "17023" "70751" "79831" "29644" "32607"
sample(usa::city.name, 6)
#> [1] "Largo"            "Lee"              "Cuba"             "Washington Depot" "Bruceton Mills"  
#> [6] "Bass Lake"
```

### Counties

The `usa::counties` tibble contains the many state county subdivisions.

``` r
show(usa::counties)
#> # A tibble: 3,232 x 3
#>    fips  name     state
#>    <chr> <chr>    <chr>
#>  1 01001 Autauga  AL   
#>  2 01003 Baldwin  AL   
#>  3 01005 Barbour  AL   
#>  4 01007 Bibb     AL   
#>  5 01009 Blount   AL   
#>  6 01011 Bullock  AL   
#>  7 01013 Butler   AL   
#>  8 01015 Calhoun  AL   
#>  9 01017 Chambers AL   
#> 10 01019 Cherokee AL   
#> # … with 3,222 more rows
```
…
